
Not Found: /post/list/lkjlkj
Not Found: /post/list/ssdasd
Not Found: /favicon.ico
Not Found: /favicon.ico
Internal Server Error: /post/list/
Traceback (most recent call last):
  File "/Users/Antonio/.virtualenvs/20140524/lib/python2.7/site-packages/django/core/handlers/base.py", line 137, in get_response
    response = response.render()
  File "/Users/Antonio/.virtualenvs/20140524/lib/python2.7/site-packages/django/template/response.py", line 105, in render
    self.content = self.rendered_content
  File "/Users/Antonio/.virtualenvs/20140524/lib/python2.7/site-packages/django/template/response.py", line 82, in rendered_content
    content = template.render(context)
  File "/Users/Antonio/.virtualenvs/20140524/lib/python2.7/site-packages/django/template/base.py", line 140, in render
    return self._render(context)
  File "/Users/Antonio/.virtualenvs/20140524/lib/python2.7/site-packages/django/template/base.py", line 134, in _render
    return self.nodelist.render(context)
  File "/Users/Antonio/.virtualenvs/20140524/lib/python2.7/site-packages/django/template/base.py", line 840, in render
    bit = self.render_node(node, context)
  File "/Users/Antonio/.virtualenvs/20140524/lib/python2.7/site-packages/django/template/debug.py", line 78, in render_node
    return node.render(context)
  File "/Users/Antonio/.virtualenvs/20140524/lib/python2.7/site-packages/django/template/loader_tags.py", line 123, in render
    return compiled_parent._render(context)
  File "/Users/Antonio/.virtualenvs/20140524/lib/python2.7/site-packages/django/template/base.py", line 134, in _render
    return self.nodelist.render(context)
  File "/Users/Antonio/.virtualenvs/20140524/lib/python2.7/site-packages/django/template/base.py", line 840, in render
    bit = self.render_node(node, context)
  File "/Users/Antonio/.virtualenvs/20140524/lib/python2.7/site-packages/django/template/debug.py", line 78, in render_node
    return node.render(context)
  File "/Users/Antonio/.virtualenvs/20140524/lib/python2.7/site-packages/django/template/loader_tags.py", line 62, in render
    result = block.nodelist.render(context)
  File "/Users/Antonio/.virtualenvs/20140524/lib/python2.7/site-packages/django/template/base.py", line 840, in render
    bit = self.render_node(node, context)
  File "/Users/Antonio/.virtualenvs/20140524/lib/python2.7/site-packages/django/template/debug.py", line 78, in render_node
    return node.render(context)
  File "/Users/Antonio/.virtualenvs/20140524/lib/python2.7/site-packages/django/template/defaulttags.py", line 196, in render
    nodelist.append(node.render(context))
  File "/Users/Antonio/.virtualenvs/20140524/lib/python2.7/site-packages/django/template/defaulttags.py", line 447, in render
    six.reraise(*exc_info)
  File "/Users/Antonio/.virtualenvs/20140524/lib/python2.7/site-packages/django/template/defaulttags.py", line 433, in render
    url = reverse(view_name, args=args, kwargs=kwargs, current_app=context.current_app)
  File "/Users/Antonio/.virtualenvs/20140524/lib/python2.7/site-packages/django/core/urlresolvers.py", line 532, in reverse
    return iri_to_uri(resolver._reverse_with_prefix(view, prefix, *args, **kwargs))
  File "/Users/Antonio/.virtualenvs/20140524/lib/python2.7/site-packages/django/core/urlresolvers.py", line 452, in _reverse_with_prefix
    (lookup_view_s, args, kwargs, len(patterns), patterns))
NoReverseMatch: Reverse for 'post_view' with arguments '(1,)' and keyword arguments '{}' not found. 0 pattern(s) tried: []
Internal Server Error: /post/list/
Traceback (most recent call last):
  File "/Users/Antonio/.virtualenvs/20140524/lib/python2.7/site-packages/django/core/handlers/base.py", line 137, in get_response
    response = response.render()
  File "/Users/Antonio/.virtualenvs/20140524/lib/python2.7/site-packages/django/template/response.py", line 105, in render
    self.content = self.rendered_content
  File "/Users/Antonio/.virtualenvs/20140524/lib/python2.7/site-packages/django/template/response.py", line 82, in rendered_content
    content = template.render(context)
  File "/Users/Antonio/.virtualenvs/20140524/lib/python2.7/site-packages/django/template/base.py", line 140, in render
    return self._render(context)
  File "/Users/Antonio/.virtualenvs/20140524/lib/python2.7/site-packages/django/template/base.py", line 134, in _render
    return self.nodelist.render(context)
  File "/Users/Antonio/.virtualenvs/20140524/lib/python2.7/site-packages/django/template/base.py", line 840, in render
    bit = self.render_node(node, context)
  File "/Users/Antonio/.virtualenvs/20140524/lib/python2.7/site-packages/django/template/debug.py", line 78, in render_node
    return node.render(context)
  File "/Users/Antonio/.virtualenvs/20140524/lib/python2.7/site-packages/django/template/loader_tags.py", line 123, in render
    return compiled_parent._render(context)
  File "/Users/Antonio/.virtualenvs/20140524/lib/python2.7/site-packages/django/template/base.py", line 134, in _render
    return self.nodelist.render(context)
  File "/Users/Antonio/.virtualenvs/20140524/lib/python2.7/site-packages/django/template/base.py", line 840, in render
    bit = self.render_node(node, context)
  File "/Users/Antonio/.virtualenvs/20140524/lib/python2.7/site-packages/django/template/debug.py", line 78, in render_node
    return node.render(context)
  File "/Users/Antonio/.virtualenvs/20140524/lib/python2.7/site-packages/django/template/loader_tags.py", line 62, in render
    result = block.nodelist.render(context)
  File "/Users/Antonio/.virtualenvs/20140524/lib/python2.7/site-packages/django/template/base.py", line 840, in render
    bit = self.render_node(node, context)
  File "/Users/Antonio/.virtualenvs/20140524/lib/python2.7/site-packages/django/template/debug.py", line 78, in render_node
    return node.render(context)
  File "/Users/Antonio/.virtualenvs/20140524/lib/python2.7/site-packages/django/template/defaulttags.py", line 196, in render
    nodelist.append(node.render(context))
  File "/Users/Antonio/.virtualenvs/20140524/lib/python2.7/site-packages/django/template/defaulttags.py", line 439, in render
    url = reverse(project_name + '.' + view_name,
TypeError: coercing to Unicode: need string or buffer, int found
Internal Server Error: /post/1/
Traceback (most recent call last):
  File "/Users/Antonio/.virtualenvs/20140524/lib/python2.7/site-packages/django/core/handlers/base.py", line 137, in get_response
    response = response.render()
  File "/Users/Antonio/.virtualenvs/20140524/lib/python2.7/site-packages/django/template/response.py", line 105, in render
    self.content = self.rendered_content
  File "/Users/Antonio/.virtualenvs/20140524/lib/python2.7/site-packages/django/template/response.py", line 80, in rendered_content
    template = self.resolve_template(self.template_name)
  File "/Users/Antonio/.virtualenvs/20140524/lib/python2.7/site-packages/django/template/response.py", line 56, in resolve_template
    return loader.select_template(template)
  File "/Users/Antonio/.virtualenvs/20140524/lib/python2.7/site-packages/django/template/loader.py", line 186, in select_template
    raise TemplateDoesNotExist(', '.join(not_found))
TemplateDoesNotExist: posts/post_detail.html
Not Found: /post/1/css/blog-post.css
Not Found: /post/1/css/blog-post.css
Not Found: /post/2/css/blog-post.css
Not Found: /post/2/css/blog-post.css
Internal Server Error: /post/add/
Traceback (most recent call last):
  File "/Users/Antonio/.virtualenvs/20140524/lib/python2.7/site-packages/django/core/handlers/base.py", line 112, in get_response
    response = wrapped_callback(request, *callback_args, **callback_kwargs)
  File "/Users/Antonio/.virtualenvs/20140524/lib/python2.7/site-packages/django/views/generic/base.py", line 69, in view
    return self.dispatch(request, *args, **kwargs)
  File "/Users/Antonio/.virtualenvs/20140524/lib/python2.7/site-packages/django/views/generic/base.py", line 87, in dispatch
    return handler(request, *args, **kwargs)
  File "/Users/Antonio/.virtualenvs/20140524/lib/python2.7/site-packages/django/views/generic/edit.py", line 205, in post
    return super(BaseCreateView, self).post(request, *args, **kwargs)
  File "/Users/Antonio/.virtualenvs/20140524/lib/python2.7/site-packages/django/views/generic/edit.py", line 171, in post
    return self.form_valid(form)
  File "/Users/Antonio/.virtualenvs/20140524/lib/python2.7/site-packages/django/views/generic/edit.py", line 147, in form_valid
    self.object = form.save()
  File "/Users/Antonio/.virtualenvs/20140524/lib/python2.7/site-packages/django/forms/models.py", line 446, in save
    construct=False)
  File "/Users/Antonio/.virtualenvs/20140524/lib/python2.7/site-packages/django/forms/models.py", line 99, in save_instance
    instance.save()
  File "/Users/Antonio/.virtualenvs/20140524/lib/python2.7/site-packages/django/db/models/base.py", line 545, in save
    force_update=force_update, update_fields=update_fields)
  File "/Users/Antonio/.virtualenvs/20140524/lib/python2.7/site-packages/django/db/models/base.py", line 573, in save_base
    updated = self._save_table(raw, cls, force_insert, force_update, using, update_fields)
  File "/Users/Antonio/.virtualenvs/20140524/lib/python2.7/site-packages/django/db/models/base.py", line 654, in _save_table
    result = self._do_insert(cls._base_manager, using, fields, update_pk, raw)
  File "/Users/Antonio/.virtualenvs/20140524/lib/python2.7/site-packages/django/db/models/base.py", line 687, in _do_insert
    using=using, raw=raw)
  File "/Users/Antonio/.virtualenvs/20140524/lib/python2.7/site-packages/django/db/models/manager.py", line 232, in _insert
    return insert_query(self.model, objs, fields, **kwargs)
  File "/Users/Antonio/.virtualenvs/20140524/lib/python2.7/site-packages/django/db/models/query.py", line 1514, in insert_query
    return query.get_compiler(using=using).execute_sql(return_id)
  File "/Users/Antonio/.virtualenvs/20140524/lib/python2.7/site-packages/django/db/models/sql/compiler.py", line 903, in execute_sql
    cursor.execute(sql, params)
  File "/Users/Antonio/.virtualenvs/20140524/lib/python2.7/site-packages/django/db/backends/util.py", line 69, in execute
    return super(CursorDebugWrapper, self).execute(sql, params)
  File "/Users/Antonio/.virtualenvs/20140524/lib/python2.7/site-packages/django/db/backends/util.py", line 53, in execute
    return self.cursor.execute(sql, params)
  File "/Users/Antonio/.virtualenvs/20140524/lib/python2.7/site-packages/django/db/utils.py", line 99, in __exit__
    six.reraise(dj_exc_type, dj_exc_value, traceback)
  File "/Users/Antonio/.virtualenvs/20140524/lib/python2.7/site-packages/django/db/backends/util.py", line 53, in execute
    return self.cursor.execute(sql, params)
  File "/Users/Antonio/.virtualenvs/20140524/lib/python2.7/site-packages/django/db/backends/sqlite3/base.py", line 451, in execute
    return Database.Cursor.execute(self, query, params)
OperationalError: table posts_post has no column named image
Internal Server Error: /post/add/
Traceback (most recent call last):
  File "/Users/Antonio/.virtualenvs/20140524/lib/python2.7/site-packages/django/core/handlers/base.py", line 112, in get_response
    response = wrapped_callback(request, *callback_args, **callback_kwargs)
  File "/Users/Antonio/.virtualenvs/20140524/lib/python2.7/site-packages/django/views/generic/base.py", line 69, in view
    return self.dispatch(request, *args, **kwargs)
  File "/Users/Antonio/.virtualenvs/20140524/lib/python2.7/site-packages/django/views/generic/base.py", line 87, in dispatch
    return handler(request, *args, **kwargs)
  File "/Users/Antonio/.virtualenvs/20140524/lib/python2.7/site-packages/django/views/generic/edit.py", line 205, in post
    return super(BaseCreateView, self).post(request, *args, **kwargs)
  File "/Users/Antonio/.virtualenvs/20140524/lib/python2.7/site-packages/django/views/generic/edit.py", line 171, in post
    return self.form_valid(form)
  File "/Users/Antonio/.virtualenvs/20140524/lib/python2.7/site-packages/django/views/generic/edit.py", line 147, in form_valid
    self.object = form.save()
  File "/Users/Antonio/.virtualenvs/20140524/lib/python2.7/site-packages/django/forms/models.py", line 446, in save
    construct=False)
  File "/Users/Antonio/.virtualenvs/20140524/lib/python2.7/site-packages/django/forms/models.py", line 99, in save_instance
    instance.save()
  File "/Users/Antonio/.virtualenvs/20140524/lib/python2.7/site-packages/django/db/models/base.py", line 545, in save
    force_update=force_update, update_fields=update_fields)
  File "/Users/Antonio/.virtualenvs/20140524/lib/python2.7/site-packages/django/db/models/base.py", line 573, in save_base
    updated = self._save_table(raw, cls, force_insert, force_update, using, update_fields)
  File "/Users/Antonio/.virtualenvs/20140524/lib/python2.7/site-packages/django/db/models/base.py", line 654, in _save_table
    result = self._do_insert(cls._base_manager, using, fields, update_pk, raw)
  File "/Users/Antonio/.virtualenvs/20140524/lib/python2.7/site-packages/django/db/models/base.py", line 687, in _do_insert
    using=using, raw=raw)
  File "/Users/Antonio/.virtualenvs/20140524/lib/python2.7/site-packages/django/db/models/manager.py", line 232, in _insert
    return insert_query(self.model, objs, fields, **kwargs)
  File "/Users/Antonio/.virtualenvs/20140524/lib/python2.7/site-packages/django/db/models/query.py", line 1514, in insert_query
    return query.get_compiler(using=using).execute_sql(return_id)
  File "/Users/Antonio/.virtualenvs/20140524/lib/python2.7/site-packages/django/db/models/sql/compiler.py", line 903, in execute_sql
    cursor.execute(sql, params)
  File "/Users/Antonio/.virtualenvs/20140524/lib/python2.7/site-packages/django/db/backends/util.py", line 69, in execute
    return super(CursorDebugWrapper, self).execute(sql, params)
  File "/Users/Antonio/.virtualenvs/20140524/lib/python2.7/site-packages/django/db/backends/util.py", line 53, in execute
    return self.cursor.execute(sql, params)
  File "/Users/Antonio/.virtualenvs/20140524/lib/python2.7/site-packages/django/db/utils.py", line 99, in __exit__
    six.reraise(dj_exc_type, dj_exc_value, traceback)
  File "/Users/Antonio/.virtualenvs/20140524/lib/python2.7/site-packages/django/db/backends/util.py", line 53, in execute
    return self.cursor.execute(sql, params)
  File "/Users/Antonio/.virtualenvs/20140524/lib/python2.7/site-packages/django/db/backends/sqlite3/base.py", line 451, in execute
    return Database.Cursor.execute(self, query, params)
OperationalError: table posts_post has no column named image
Not Found: /post/1/css/blog-post.css
Not Found: /post/3/css/blog-post.css
Not Found: /favicon.ico
Not Found: /favicon.ico
Not Found: /post/1/css/blog-post.css
Not Found: /post/3/css/blog-post.css
Not Found: /post/edit
Internal Server Error: /post/add/
Traceback (most recent call last):
  File "/Users/Antonio/.virtualenvs/20140524/lib/python2.7/site-packages/django/core/handlers/base.py", line 137, in get_response
    response = response.render()
  File "/Users/Antonio/.virtualenvs/20140524/lib/python2.7/site-packages/django/template/response.py", line 105, in render
    self.content = self.rendered_content
  File "/Users/Antonio/.virtualenvs/20140524/lib/python2.7/site-packages/django/template/response.py", line 80, in rendered_content
    template = self.resolve_template(self.template_name)
  File "/Users/Antonio/.virtualenvs/20140524/lib/python2.7/site-packages/django/template/response.py", line 56, in resolve_template
    return loader.select_template(template)
  File "/Users/Antonio/.virtualenvs/20140524/lib/python2.7/site-packages/django/template/loader.py", line 180, in select_template
    return get_template(template_name)
  File "/Users/Antonio/.virtualenvs/20140524/lib/python2.7/site-packages/django/template/loader.py", line 138, in get_template
    template, origin = find_template(template_name)
  File "/Users/Antonio/.virtualenvs/20140524/lib/python2.7/site-packages/django/template/loader.py", line 127, in find_template
    source, display_name = loader(name, dirs)
  File "/Users/Antonio/.virtualenvs/20140524/lib/python2.7/site-packages/django/template/loader.py", line 43, in __call__
    return self.load_template(template_name, template_dirs)
  File "/Users/Antonio/.virtualenvs/20140524/lib/python2.7/site-packages/django/template/loader.py", line 49, in load_template
    template = get_template_from_string(source, origin, template_name)
  File "/Users/Antonio/.virtualenvs/20140524/lib/python2.7/site-packages/django/template/loader.py", line 149, in get_template_from_string
    return Template(source, origin, name)
  File "/Users/Antonio/.virtualenvs/20140524/lib/python2.7/site-packages/django/template/base.py", line 125, in __init__
    self.nodelist = compile_string(template_string, origin)
  File "/Users/Antonio/.virtualenvs/20140524/lib/python2.7/site-packages/django/template/base.py", line 153, in compile_string
    return parser.parse()
  File "/Users/Antonio/.virtualenvs/20140524/lib/python2.7/site-packages/django/template/base.py", line 282, in parse
    self.extend_nodelist(nodelist, compiled_result, token)
  File "/Users/Antonio/.virtualenvs/20140524/lib/python2.7/site-packages/django/template/debug.py", line 60, in extend_nodelist
    super(DebugParser, self).extend_nodelist(nodelist, node, token)
  File "/Users/Antonio/.virtualenvs/20140524/lib/python2.7/site-packages/django/template/base.py", line 308, in extend_nodelist
    "in the template." % node)
TemplateSyntaxError: <ExtendsNode: extends 'base.html'> must be the first tag in the template.
Not Found: /post/13/css/blog-post.css
Not Found: /post/3/index.php
Not Found: /post/1/css/blog-post.css
Not Found: /media/uploads/images/abrazos27.jpg
Not Found: /media/uploads/images/nodejs-1920x1200.png
Not Found: /media/uploads/images/abrazos27.jpg
Not Found: /media/uploads/images/nodejs-1920x1200.png
Not Found: /media/uploads/images/abrazos27.jpg
Not Found: /media/uploads/images/nodejs-1920x1200.png
Not Found: /media/uploads/images/abrazos27.jpg
Not Found: /media/uploads/images/nodejs-1920x1200.png
Not Found: /media/uploads/images/nodejs-1920x1200.png
Not Found: /post/list/media/uploads/images/nodejs-1920x1200.png
Not Found: /media/uploads/images/nodejs-1920x1200.png
Not Found: /uploads/images/nodejs-1920x1200.png
Not Found: /media/uploads/images/nodejs-1920x1200.png
Not Found: /media/uploads/images/abrazos27.jpg
Not Found: /media/uploads/images/nodejs-1920x1200.png
Not Found: /post/list/media/uploads/images/nodejs-1920x1200.png
Not Found: /media/uploads/images/nodejs-1920x1200.png
Not Found: /uploads/images/nodejs-1920x1200.png
Not Found: /media/uploads/images/nodejs-1920x1200.png
Not Found: /uploads/images/nodejs-1920x1200.png
Not Found: /media/uploads/images/nodejs-1920x1200.png
Not Found: /post/list/media/uploads/images/nodejs-1920x1200.png
Not Found: /media/uploads/images/nodejs-1920x1200.png
Not Found: /media/uploads/images/nodejs-1920x1200.png
Not Found: /media/uploads/images/abrazos27.jpg
Not Found: /media/uploads/images/nodejs-1920x1200.png
Not Found: /media/uploads/images/nodejs-1920x1200.png
Not Found: /media/uploads/images/abrazos27.jpg
Not Found: /media/uploads/images/nodejs-1920x1200.png
Not Found: /media/uploads/images/nodejs-1920x1200.png
Not Found: /media/uploads/images/nodejs-1920x1200.png
Not Found: /media/uploads/images/nodejs-1920x1200.png
Not Found: /media/uploads/images/abrazos27.jpg
Not Found: /media/uploads/images/nodejs-1920x1200.png
Not Found: /media/uploads/images/abrazos27.jpg
Not Found: /media/uploads/images/abrazos27.jpg
Not Found: /media/uploads/images/abrazos27.jpg
Not Found: /media/uploads/images/nodejs-1920x1200.png
Not Found: /media/uploads/images/abrazos27.jpg
Not Found: /media/uploads/images/nodejs-1920x1200.png
Not Found: /media/uploads/images/abrazos27.jpg
Not Found: /media/uploads/images/nodejs-1920x1200.png
Not Found: /media/uploads/images/nodejs-1920x1200.png
Not Found: /media/uploads/images/nodejs-1920x1200.png
Not Found: /media/uploads/images/nodejs-1920x1200.png
Not Found: /media/uploads/images/nodejs-1920x1200.png
Not Found: /media/uploads/images/nodejs-1920x1200.png
Not Found: /media/uploads/images/nodejs-1920x1200.png
Not Found: /media/uploads/images/nodejs-1920x1200.png
Internal Server Error: /media/uploads/images/nodejs-1920x1200.png
Traceback (most recent call last):
  File "/Users/Antonio/.virtualenvs/20140524/lib/python2.7/site-packages/django/core/handlers/base.py", line 88, in get_response
    response = middleware_method(request)
  File "/Users/Antonio/.virtualenvs/20140524/lib/python2.7/site-packages/django/middleware/common.py", line 71, in process_request
    if (not urlresolvers.is_valid_path(request.path_info, urlconf) and
  File "/Users/Antonio/.virtualenvs/20140524/lib/python2.7/site-packages/django/core/urlresolvers.py", line 596, in is_valid_path
    resolve(path, urlconf)
  File "/Users/Antonio/.virtualenvs/20140524/lib/python2.7/site-packages/django/core/urlresolvers.py", line 476, in resolve
    return get_resolver(urlconf).resolve(path)
  File "/Users/Antonio/.virtualenvs/20140524/lib/python2.7/site-packages/django/core/urlresolvers.py", line 337, in resolve
    for pattern in self.url_patterns:
  File "/Users/Antonio/.virtualenvs/20140524/lib/python2.7/site-packages/django/core/urlresolvers.py", line 365, in url_patterns
    patterns = getattr(self.urlconf_module, "urlpatterns", self.urlconf_module)
  File "/Users/Antonio/.virtualenvs/20140524/lib/python2.7/site-packages/django/core/urlresolvers.py", line 360, in urlconf_module
    self._urlconf_module = import_module(self.urlconf_name)
  File "/Users/Antonio/.virtualenvs/20140524/lib/python2.7/site-packages/django/utils/importlib.py", line 40, in import_module
    __import__(name)
  File "/Users/Antonio/Devel/20140524/tecp2p/tecp2p/urls.py", line 10, in <module>
    (r'^media/(?P<path>.*)$', 'django.views.static.serve', {'document_root': settings.MEDIA_ROOT, 'show_indexes':True}),
NameError: name 'settings' is not defined
Internal Server Error: /post/list/
Traceback (most recent call last):
  File "/Users/Antonio/.virtualenvs/20140524/lib/python2.7/site-packages/django/core/handlers/base.py", line 137, in get_response
    response = response.render()
  File "/Users/Antonio/.virtualenvs/20140524/lib/python2.7/site-packages/django/template/response.py", line 105, in render
    self.content = self.rendered_content
  File "/Users/Antonio/.virtualenvs/20140524/lib/python2.7/site-packages/django/template/response.py", line 82, in rendered_content
    content = template.render(context)
  File "/Users/Antonio/.virtualenvs/20140524/lib/python2.7/site-packages/django/template/base.py", line 140, in render
    return self._render(context)
  File "/Users/Antonio/.virtualenvs/20140524/lib/python2.7/site-packages/django/template/base.py", line 134, in _render
    return self.nodelist.render(context)
  File "/Users/Antonio/.virtualenvs/20140524/lib/python2.7/site-packages/django/template/base.py", line 840, in render
    bit = self.render_node(node, context)
  File "/Users/Antonio/.virtualenvs/20140524/lib/python2.7/site-packages/django/template/debug.py", line 78, in render_node
    return node.render(context)
  File "/Users/Antonio/.virtualenvs/20140524/lib/python2.7/site-packages/django/template/loader_tags.py", line 123, in render
    return compiled_parent._render(context)
  File "/Users/Antonio/.virtualenvs/20140524/lib/python2.7/site-packages/django/template/base.py", line 134, in _render
    return self.nodelist.render(context)
  File "/Users/Antonio/.virtualenvs/20140524/lib/python2.7/site-packages/django/template/base.py", line 840, in render
    bit = self.render_node(node, context)
  File "/Users/Antonio/.virtualenvs/20140524/lib/python2.7/site-packages/django/template/debug.py", line 78, in render_node
    return node.render(context)
  File "/Users/Antonio/.virtualenvs/20140524/lib/python2.7/site-packages/django/template/loader_tags.py", line 62, in render
    result = block.nodelist.render(context)
  File "/Users/Antonio/.virtualenvs/20140524/lib/python2.7/site-packages/django/template/base.py", line 840, in render
    bit = self.render_node(node, context)
  File "/Users/Antonio/.virtualenvs/20140524/lib/python2.7/site-packages/django/template/debug.py", line 78, in render_node
    return node.render(context)
  File "/Users/Antonio/.virtualenvs/20140524/lib/python2.7/site-packages/django/template/defaulttags.py", line 156, in render
    len_values = len(values)
  File "/Users/Antonio/.virtualenvs/20140524/lib/python2.7/site-packages/django/db/models/query.py", line 77, in __len__
    self._fetch_all()
  File "/Users/Antonio/.virtualenvs/20140524/lib/python2.7/site-packages/django/db/models/query.py", line 857, in _fetch_all
    self._result_cache = list(self.iterator())
  File "/Users/Antonio/.virtualenvs/20140524/lib/python2.7/site-packages/django/db/models/query.py", line 220, in iterator
    for row in compiler.results_iter():
  File "/Users/Antonio/.virtualenvs/20140524/lib/python2.7/site-packages/django/db/models/sql/compiler.py", line 713, in results_iter
    for rows in self.execute_sql(MULTI):
  File "/Users/Antonio/.virtualenvs/20140524/lib/python2.7/site-packages/django/db/models/sql/compiler.py", line 776, in execute_sql
    sql, params = self.as_sql()
  File "/Users/Antonio/.virtualenvs/20140524/lib/python2.7/site-packages/django/db/models/sql/compiler.py", line 84, in as_sql
    ordering, o_params, ordering_group_by = self.get_ordering()
  File "/Users/Antonio/.virtualenvs/20140524/lib/python2.7/site-packages/django/db/models/sql/compiler.py", line 403, in get_ordering
    self.query.get_meta(), default_order=asc):
  File "/Users/Antonio/.virtualenvs/20140524/lib/python2.7/site-packages/django/db/models/sql/compiler.py", line 437, in find_ordering_name
    field, cols, alias, joins, opts = self._setup_joins(pieces, opts, alias)
  File "/Users/Antonio/.virtualenvs/20140524/lib/python2.7/site-packages/django/db/models/sql/compiler.py", line 470, in _setup_joins
    pieces, opts, alias)
  File "/Users/Antonio/.virtualenvs/20140524/lib/python2.7/site-packages/django/db/models/sql/query.py", line 1363, in setup_joins
    names, opts, allow_many, allow_explicit_fk)
  File "/Users/Antonio/.virtualenvs/20140524/lib/python2.7/site-packages/django/db/models/sql/query.py", line 1283, in names_to_path
    "Choices are: %s" % (name, ", ".join(available)))
FieldError: Cannot resolve keyword 'pub_date' into field. Choices are: body, created, id, photo, title
Not Found: /preview/
Not Found: /post/3/css/blog-post.css
Not Found: /post/3/css/blog-post.css
Not Found: /post/14/css/blog-post.css
Not Found: /post/14/css/blog-post.css
Not Found: /
Not Found: /favicon.ico
Not Found: /favicon.ico
Not Found: /post/
